{
    "words": [
        {
            "Bounce back": "An email message that cannot be delivered and returns an error notification to the sender is said to '------ ----'. If you receive such an error notification, check that you have typed the address correctly."
        },
        {
            "SAAS": "SAAS stands for software as a service. It is a software distribution model whereby software applications are centrally hosted and licensed on a subscription basis."
        },
        {
            "SSL": "secure sockets layer, is a protocol that allows Internet users to send encrypted messages across the Internet. It is generally used when transmitting confidential information (e.g. personal data or credit card details). A web address that begins with 'https' indicates that an SSL connection is in use."
        },
        {
            "WPA": "Wi-Fi protected access is a security protocol used in wi-fi networks. It is an improvement on WEP because it offers greater protection through more sophisticated data encryption."
        },
        {
            "Abstraction": "Simplified code or technology that's easy to use without knowing how it works."
        },
        {
            "Algorithm": "A sequence of problem-solving steps. For example: Add a series of values together, and then divide by the number of values. These steps produce a mean or average."
        },
        {
            "API": "An application programming interface allows interactions between multiple software programs so programmers have access to data and info from external software. The Google Maps API lets people use satellite photos and maps in their own programs."
        },
        {
            "ASCII ": "American Standard Code for Information Interchange is a system for electronic communication. It has 128 numbers that stand for letters and other symbols. ASCII is the same all over the world."
        },
        {
            "eavesdrop": "Secretly listen to a conversation."
        },
        {
            "Blockly": "A block programming language created by Code.org. It's used to teach kids how to code."
        },
        {
            "Bootstrap": "An open-source framework. A group of templates for building the front end of a website. A large set of HTML files, CSS stylesheets, and JavaScript."
        },
        {
            "Coding": "The process of writing a computer program. Is often the majority of what software engineers do."
        },
        {
            "Crowdsourcing": "The act of recruiting big groups of people to work on a project. People may work for free or for pay. But everyone contributes to the final goal."
        },
        {
            "Data Science": "The science of finding patterns in data with computers. Facebook, Google, and even the government rely on data science. It helps them make better decisions and more useful products."
        },
        {
            "Decompose": "To divide a complex challenge into smaller chunks. The goal is to make it easier to solve."
        },
        {
            "Django": "A Python framework for the web. Makes Python website development easier. It's a collection of templates and libraries."
        },
        {
            "Flask": "Is a backend web framework written in Python. It's an API of Python that lets us build up web applications quickly and easily without special tools or libraries."
        },
        {
            "Inheritance": "The practice of basing a new piece of code on existing code. Programmers use this to create an enhanced version of the original code."
        },
        {
            "Keywords": "Predefined words in a programming language. These words have a special meaning. In an integrated development environment (IDE), that elements appear in special colors."
        },
        {
            "Sprint": "A period of several days during which a software team works on specific tasks. For each ------, every member of the team has a certain amount of work to get done."
        }
    ]
}